module brainiac

go 1.21.2

require github.com/go-playground/validator v9.31.0+incompatible

require (
	github.com/go-playground/locales v0.14.1 // indirect
	github.com/go-playground/universal-translator v0.18.1 // indirect
	github.com/leodido/go-urn v1.2.4 // indirect
	gopkg.in/go-playground/assert.v1 v1.2.1 // indirect
)
